{
  "success": true,
  "data": {
    "users": [
      {
        "userId": 2,
        "username": "Caravaggio Goustan",
        "email": "lesli.miller@yahoo.com",
        "role": "USER"
      },
      {
        "userId": 4,
        "username": "Caravaggio Séli",
        "email": "brigette.fadel@gmail.com",
        "role": "USER"
      },
      {
        "userId": 1,
        "username": "Cassatt Lucius Sillius Sallustius",
        "email": "ricky.davis@hotmail.com",
        "role": "USER"
      },
      {
        "userId": 17,
        "username": "Chagall Lancelot",
        "email": "melony.bogan@yahoo.com",
        "role": "USER"
      },
      {
        "userId": 5,
        "username": "Chagall Séfriane d'Aquitaine",
        "email": "noriko.mraz@hotmail.com",
        "role": "USER"
      }
    ],
    "total": 23,
    "pageNo": 1,
    "pageSize": 5,
    "hasNext": true,
    "first": true,
    "last": false
  },
  "status": 200,
  "code": "OK",
  "message": "SUCCESS",
  "timestamp": "2023-10-19T17:36:08.437376200"
}