{
  "success": true,
  "data": {
    "users": [
      {
        "userId": 10,
        "username": "Joan Miro Urgan",
        "email": "norberto.kerluke@hotmail.com",
        "role": "USER"
      },
      {
        "userId": 5,
        "username": "Kandinsky Grüdü",
        "email": "evelia.brekke@yahoo.com",
        "role": "USER"
      },
      {
        "userId": 18,
        "username": "Klimt Attila",
        "email": "cassandra.lind@yahoo.com",
        "role": "USER"
      },
      {
        "userId": 22,
        "username": "Lee",
        "email": "deidre.hand@hotmail.com",
        "role": "USER"
      },
      {
        "userId": 6,
        "username": "Monet Spurius Cordius Frontinius",
        "email": "morris.dietrich@gmail.com",
        "role": "USER"
      }
    ],
    "total": 23,
    "pageNo": 2,
    "pageSize": 5,
    "hasNext": true,
    "first": false,
    "last": false
  },
  "status": 200,
  "code": "OK",
  "message": "SUCCESS",
  "timestamp": "2023-10-19T20:10:05.596023"
}